aMin -0.1
aMax 0.1
bMin -0.1
bMax 0.1
cMin -0.1
cMax 0.1
a_initParameter -7.0649e-03
b_initParameter -1.0000e-01
c_initParameter 1.4132e-02
a_setFixedValue 0
b_setFixedValue 0
c_setFixedValue 0
a_fixedValue -1.2969e-06
b_fixedValue -9.8639e-06
c_fixedValue 0.11

