a0min 3.5
a0max 3.6
a1min -1.6
a1max -1.4
a2min 0.22
a2max 0.235
a0_initParameter 3.55
a1_initParameter -1.5
a2_initParameter 0.23
a0_fixedValue 2.5
a1_fixedValue -1.43
a2_fixedValue 0.23
a0_setFixedValue 0
a1_setFixedValue 0
a2_setFixedValue 0